﻿Abreviacao;Descricao
10A-R;10ªRua
10A-TV;10ªTravessa
11A-R;11ªRua
11A-TV;11ªTravessa
12A-R;12ªRua
12A-TV;12ªTravessa
13A-TV;13ªTravessa
14A-TV;14ªTravessa
15A-TV;15ªTravessa
16A-TV;16ªTravessa
1A-PAR;1ªParalela
1A-R;1ªRua
1A-SUB;1ªSubida
1A-TV;1ªTravessa
1A-VL;1ªVila
1O-AT;1ºAlto
1O-BC;1ºBeco
1O-PRQ;1ºParque
2A-PAR;2ªParalela
2A-R;2ªRua
2A-SUB;2ªSubida
2A-TV;2ªTravessa
2A-VL;2ªVila
2O-AT;2ºAlto
2O-BC;2ºBeco
2O-PRQ;2ºParque
3A-PAR;3ªParalela
3A-R;3ªRua
3A-SUB;3ªSubida
3A-TV;3ªTravessa
3A-VL;3ªVila
3O-AT;3ºAlto
3O-BC;3ºBeco
3O-PRQ;3ºParque
4A-PAR;4ªParalela
4A-R;4ªRua
4A-SUB;4ªSubida
4A-TV;4ªTravessa
4A-VL;4ªVila
4O-AT;4ºAlto
4O-BC;4ºBeco
5A-PAR;5ªParalela
5A-R;5ªRua
5A-SUB;5ªSubida
5A-TV;5ªTravessa
5A-VL;5ªVila
5O-AT;5ºAlto
5O-BC;5ºBeco
6A-R;6ªRua
6A-SUB;6ªSubida
6A-TV;6ªTravessa
7A-R;7ªRua
7A-TV;7ªTravessa
8A-R;8ªRua
8A-TV;8ªTravessa
9A-R;9ªRua
9A-TV;9ªTravessa
ACAMP;Acampamento
AC;Acesso
AD;Adro
AER;Aeroporto
AL;Alameda
ALF;Alfredo
ALM;Almirante
AT;Alto
AP;Apartamento
APTO;Apartamento
A;Área
AE;ÁreaEspecial
ARQ;Arquiteto
ART;Artéria
ATL;Atalho
AV;Avenida
AV-CONT;AvenidaContorno
BX;Baixa
BLO;Balão
BAL;Balneario
BAR;Barao
BC;Beco
BELV;Belvedere
BL;Bloco
BSQ;Bosque
BVD;Boulevard
BRIG;Brigadeiro
BCO;Buraco
C;Cais
CALC;Calçada
CAM;Caminho
CPO;Campo
CAN;Canal
CAP;Capitao
CARD;Cardeal
CA;Casa
CAS;Casa
CS;Casa
CH;Chácara
CHAP;Chapadão
CIRC;Circular
COL;Colônia
CMDT;Comandante
COMEND;Comendador
CMP-VR;ComplexoViário
COND;Condomínio
CJ;Conjunto
CONJ;Conjunto
CONS;Conselheiro
CEL;Coronel
COR;Corredor
CRG;Córrego
DEP;Deputado
DSC;Descida
DSV;Desvio
DT;Distrito
DR;Doutor
EVD;Elevada
EMB;Embaixador
ENG;Engenheiro
ENT-PART;EntradaParticular
EQ;Entre-quadra
ESC;Escada
ESP;Esplanada
ETC;Estação
ESTC;Estacionamento
ETD;Estádio
ETN;Estância
EST;Estrada
ESTR;Estrada
EST-MUN;EstradaMunicipal
EXP;Expedicionario
FAV;Favela
FAZ;Fazenda
FRA;Feira
FER;Ferrovia
FNT;Fonte
FTE;Forte
FR;Frei
FT;Frente
FD;Fundos
FDS;Fundos
FU;Fundos
FUN;Fundos
GAL;Galeria
GEN;General
GOV;Governador
GJA;Granja
HAB;Habitacional
IA;Ilha
JD;Jardim
JDE;Jardinete
LD;Ladeira
LG;Lago
LGA;Lagoa
LRG;Largo
LJ;Loja
LT;Lote
LOT;Loteamento
LOTM;Loteamento
LTM;Loteamento
MAJ;Major
MAL;Marechal
MNA;Marina
ME;MESTRE
MOD;Módulo
MTE;Monte
MRO;Morro
NUC;Núcleo
NR;Numero
PE;Padre
PDA;Parada
PDO;Paradouro
PAR;Paralela
PQ;Parque
PQE;Parque
PRQ;Parque
PSG;Passagem
PSG-SUB;PassagemSubterrânea
PSA;Passarela
PAS;Passeio
PAT;Pátio
PNT;Ponta
PTE;Ponte
PTO;Porto
PÇ;Praça
PÇ-ESP;PraçadeEsportes
PR;Praia
PREF;Prefeito
PRES;Presidente
1A;Primeira
PROF;Professor
PROFA;Professora
PROJ;Projetada
PRL;Prolongamento
Q;Quadra
QD;Quadra
QU;Quadra
4A;Quarta
5A;Quinta
QTA;Quinta
QTAS;Quintas
RAM;Ramal
RMP;Rampa
REC;Recanto
RES;Residencial
RET;Reta
RER;Retiro
RTN;Retorno
ROD-AN;RodoAnel
ROD;Rodovia
RTT;Rotatória
ROT;Rotula
R;Rua
R-LIG;RuadeLigação
R-PED;RuadePedestre
RUAFR;RuaFrei
SL;Sala
STA;Santa
STO;Santo
S;Sao
SARG;Sargento
SRG;Sargento
2A;Segunda
SN;SemNúmero
SEN;Senador
SR;Senhor
SRA;Senhora
SRV;Servidão
SET;Setor
ST;Setor
SIT;Sítio
SB;Sobrado
SLJ;Sobreloja
SD;Soldado
SUB;Subida
TEN;Tenente
3A;Terceira
TER;Terminal
TE;Terreo
TRANSV;Transversal
TV;Travessa
TV-PART;TravessaParticular
TR;Trecho
TRV;Trevo
TCH;Trincheira
TUN;Túnel
UNID;Unidade
VAL;Vala
VLE;Vale
VRTE;Variante
VER;Vereador
V;Via
V-AC;ViadeAcesso
V-PED;Viadepedestre
VD;Viaduto
V-EVD;ViaElevada
V-EXP;ViaExpressa
VLA;Viela
VL;Vila
VISC;Visconde
VSC;VISCONDE
VV;Vivenda
ZIG-ZAG;Zigue-zague
ZN;Zona
